<?xml version="1.0" encoding="utf-8"?>
<!-- Generator: Adobe Illustrator 23.0.1, SVG Export Plug-In . SVG Version: 6.00 Build 0)  -->
<svg version="1.1" id="Layer_1" xmlns="http://www.w3.org/2000/svg" xmlns:xlink="http://www.w3.org/1999/xlink" x="0px" y="0px"
	 viewBox="0 0 1440 220" style="enable-background:new 0 0 1440 220;" xml:space="preserve">
<style type="text/css">
	.st0{fill:none;stroke:#CFBBB6;}
</style>
<g transform="matrix(-.78801075 -.61566148 .61566148 -.78801075 901.595495 2552.24335)">
	<path class="st0" d="M1396.4,1868.7l345.1-269.7C1648.8,1713,1530.9,1805.7,1396.4,1868.7z"/>
	<path class="st0" d="M1825.6,1533.3C1706,1717.2,1527,1859,1315.9,1931.5L1825.6,1533.3z"/>
	<path class="st0" d="M1888.6,1484.1c-131.5,241.8-359.4,423.6-632,493.8L1888.6,1484.1z"/>
	<path class="st0" d="M1941.2,1443c-135.6,293.6-407,511.5-733.7,573.2L1941.2,1443z"/>
	<path class="st0" d="M1987.3,1407c-134.7,341.3-446.7,593.3-822.5,642.6L1987.3,1407z"/>
	<path class="st0" d="M2028.8,1374.6c-130.3,386.1-480.8,670.8-902.1,704.8L2028.8,1374.6z"/>
	<path class="st0" d="M2066.9,1344.9c-123,428.6-510.7,745.2-974.9,761.6L2066.9,1344.9z"/>
</g>
</svg>
